%YAML 1.1
%TAG !u! tag:unity3d.com,2011:
--- !u!1045 &1
EditorBuildSettings:
  m_ObjectHideFlags: 0
  serializedVersion: 2
  m_Scenes:
  - enabled: 1
    path: Assets/Scenes/Jason/menu.unity
    guid: a85520459cc9c9d41a7207699b66ef57
  - enabled: 1
    path: Assets/Scenes/Level1.unity
    guid: e5f80135f9cd28845994d1ed942299ba
  - enabled: 1
    path: Assets/Scenes/Level2.unity
    guid: 1d84c383ccd39bf4b814f303ad0562a5
  - enabled: 1
    path: Assets/Scenes/Level3.unity
    guid: 2ef0403a9e617e34e8594be2e19e4541
  m_configObjects: {}
